Introduction to landscape ecology with R
…
```
##   layer       crs units   class n_classes OK
## 1     1 projected     m integer        15  ✓
```

--
List available metrics

```r
list_lsm()
```

```
## # A tibble: 132 x 5
##   metric name                          type                 level function_name
##   <chr>  <chr>                         <chr>                <chr> <chr>        
## 1 area   patch area                    area and edge metric patch lsm_p_area   
## 2 cai    core area index               core area metric     patch lsm_p_cai    
## 3 circle related circumscribing circle shape metric         patch lsm_p_circle 
## 4 contig contiguity index              shape metric         patch lsm_p_contig 
## 5 core   core area                     core area metric     patch lsm_p_core   
## # … with 127 more rows
```

---
# How to calculate landscape metrics

--
.pull-left[

Calculate single metric

```r
lsm_p_area(lc_data)
```

```
## # A tibble: 7,774 x 6
##   layer level class    id metric value
##   <int> <chr> <int> <int> <chr>  <dbl>
## 1     1 patch    11     1 area   0.450
## 2     1 patch    11     2 area   0.450
## 3     1 patch    11     3 area   0.450
## 4     1 patch    11     4 area   3.51 
## 5     1 patch    11     5 area   0.54 
## # … with 7,769 more rows
```
…
--
.pull-right[

Combine several metrics to one *tibble*

```r
class_mean <- lsm_c_area_mn(lc_data)
lsm_total <- lsm_l_ta(lc_data)

bind_rows(class_mean, lsm_total)
```

```
## # A tibble: 16 x 6
##   layer level class    id metric  value
## * <int> <chr> <int> <int> <chr>   <dbl>
## 1     1 class    11    NA area_mn 1.66 
## 2     1 class    21    NA area_mn 1.92 
## 3     1 class    22    NA area_mn 0.715
## 4     1 class    23    NA area_mn 0.497
## 5     1 class    24    NA area_mn 0.662
## # … with 11 more rows
```
…
---

Calculate several metrics at once

```r
calculate_lsm(landscape = lc_data, 
              level = "landscape", type = "diversity metric", 
              classes_max = 5)
```

```
## # A tibble: 9 x 6
##   layer level     class    id metric    value
##   <int> <chr>     <int> <int> <chr>     <dbl>
## 1     1 landscape    NA    NA msidi    1.61  
## 2     1 landscape    NA    NA msiei    0.593 
## 3     1 landscape    NA    NA pr      15     
## 4     1 landscape    NA    NA prd      0.0558
## 5     1 landscape    NA    NA rpr    300     
## # … with 4 more rows
```
…
