Introduction to landscape ecology with R
…
```
##   layer crs units   class n_classes OK
## 1     1  NA    NA integer         3  ?⃝
```

--
List available metrics

```r
list_lsm()
```

```
## # A tibble: 132 x 5
##   metric name                          type                 level function_name
##   <chr>  <chr>                         <chr>                <chr> <chr>        
## 1 area   patch area                    area and edge metric patch lsm_p_area   
## 2 cai    core area index               core area metric     patch lsm_p_cai    
## 3 circle related circumscribing circle shape metric         patch lsm_p_circle 
## 4 contig contiguity index              shape metric         patch lsm_p_contig 
## 5 core   core area                     core area metric     patch lsm_p_core   
## # … with 127 more rows
```

---
# How to calculate landscape metrics

--
.pull-left[

Calculate single metric

```r
lsm_p_area(lc_data)
```

```
## # A tibble: 27 x 6
##   layer level class    id metric  value
##   <int> <chr> <int> <int> <chr>   <dbl>
## 1     1 patch     1     1 area   0.0001
## 2     1 patch     1     2 area   0.0005
## 3     1 patch     1     3 area   0.0148
## 4     1 patch     1     4 area   0.0001
## 5     1 patch     1     5 area   0.0001
## # … with 22 more rows
```
…
---
# Calculation of multiple metrics

--
Easily calculate multiple metrics based on e.g. level and type

```r
calculate_lsm(landscape = lc_data, 
              level = "landscape", type = "diversity metric", 
              classes_max = 5)
```

```
## # A tibble: 9 x 6
##   layer level     class    id metric    value
##   <int> <chr>     <int> <int> <chr>     <dbl>
## 1     1 landscape    NA    NA msidi     0.929
## 2     1 landscape    NA    NA msiei     0.845
## 3     1 landscape    NA    NA pr        3    
## 4     1 landscape    NA    NA prd    3333.   
## 5     1 landscape    NA    NA rpr      60    
## # … with 4 more rows
```
…
